…
## Let’s simulate a lot

Let’s start with a for loop

``` r
output = vector("list", length = 100)

for (i in 1:100) {
  output[[i]] = sim_mean_sd(samp_size = 30)
}

bind_rows(output)
```

    ## # A tibble: 100 × 2
    ##     mean    sd
    ##    <dbl> <dbl>
    ##  1  3.45  3.40
    ##  2  3.69  3.76
    ##  3  4.14  4.13
    ##  4  3.10  4.81
    ##  5  3.50  4.25
    ##  6  2.60  4.17
    ##  7  2.99  4.03
    ##  8  3.75  4.21
    ##  9  3.67  4.09
    ## 10  3.28  4.72
    ## # … with 90 more rows
…
